item number,weight(gr),value
Item 1,70,135
Item 2,73,139
Item 3,77,149
Item 4,80,150
Item 5,82,156
Item 6,87,163
Item 7,90,173
Item 8,94,184
Item 9,98,192
Item 10,106,201
Item 11,110,210
Item 12,113,214
Item 13,115,221
Item 14,118,229
Item 15,120,240